…
``` r
# Cell to get song counts by key and mode
summer_songs_key_count <- summer_songs %>%
  group_by(mode, key) %>%
  count(key)
  
summer_songs_key_count
```

```
## # A tibble: 24 × 3
## # Groups:   mode, key [24]
##    mode  key       n
##    <chr> <chr> <int>
##  1 major A        33
##  2 major A#       24
##  3 major B        18
##  4 major C        70
##  5 major C#       54
##  6 major D        40
##  7 major D#       12
##  8 major E        29
##  9 major F        45
## 10 major F#       17
## # ℹ 14 more rows
```
…
