…
# Data Visualization Project 02

# Data Summaries (Report starts in Visualizations)


``` r
# Cell to read in CSV
library(tidyverse)

fifa <- read_csv("../data/fifa18.csv")
fifa
```

```
## # A tibble: 17,076 × 40
##    name        nationality club    age overall potential acceleration aggression
##    <chr>       <chr>       <chr> <dbl>   <dbl>     <dbl>        <dbl>      <dbl>
##  1 Cristiano … Portugal    Real…    32      94        94           89         63
##  2 L. Messi    Argentina   FC B…    30      93        93           92         48
##  3 Neymar      Brazil      Pari…    25      92        94           94         56
##  4 L. Suárez   Uruguay     FC B…    30      92        92           88         78
##  5 M. Neuer    Germany     FC B…    31      92        92           58         29
##  6 R. Lewando… Poland      FC B…    28      91        91           79         80
##  7 De Gea      Spain       Manc…    26      90        92           57         38
##  8 E. Hazard   Belgium     Chel…    26      90        91           93         54
##  9 T. Kroos    Germany     Real…    27      90        90           60         60
## 10 G. Higuaín  Argentina   Juve…    29      90        90           78         50
## # ℹ 17,066 more rows
## # ℹ 32 more variables: agility <dbl>, balance <dbl>, ball_control <dbl>,
## #   composure <dbl>, crossing <dbl>, curve <dbl>, dribbling <dbl>,
## #   finishing <dbl>, free_kick_accuracy <dbl>, gk_diving <dbl>,
## #   gk_handling <dbl>, gk_kicking <dbl>, gk_positioning <dbl>,
## #   gk_reflexes <dbl>, heading_accuracy <dbl>, interceptions <dbl>,
## #   jumping <dbl>, long_passing <dbl>, long_shots <dbl>, marking <dbl>, …
```
…
``` r
# Summarize number of players per country
player_counts_country <- fifa %>%
  group_by(nationality) %>%
  summarize(players = n())

player_counts_country
```

```
## # A tibble: 162 × 2
##    nationality       players
##    <chr>               <int>
##  1 Afghanistan             3
##  2 Albania                34
##  3 Algeria                57
##  4 Angola                 15
##  5 Antigua & Barbuda       4
##  6 Argentina             938
##  7 Armenia                14
##  8 Australia             220
##  9 Austria               263
## 10 Azerbaijan              6
## # ℹ 152 more rows
```
…
player_counts_country <- player_counts_country %>%
  mutate(nationality_fixed = recode(nationality, !!!country_mapping, .default = nationality))

player_counts_country
```

```
## # A tibble: 162 × 3
##    nationality       players nationality_fixed  
##    <chr>               <int> <chr>              
##  1 Afghanistan             3 Afghanistan        
##  2 Albania                34 Albania            
##  3 Algeria                57 Algeria            
##  4 Angola                 15 Angola             
##  5 Antigua & Barbuda       4 Antigua and Barbuda
##  6 Argentina             938 Argentina          
##  7 Armenia                14 Armenia            
##  8 Australia             220 Australia          
##  9 Austria               263 Austria            
## 10 Azerbaijan              6 Azerbaijan         
## # ℹ 152 more rows
```


``` r
# Summarize player counts by nationality_fixed and display top countries
summary_by_fixed_nationality <- player_counts_country %>%
  group_by(nationality_fixed) %>%
  summarize(total_players = sum(players, na.rm = TRUE)) %>%
  arrange(desc(total_players))

print(summary_by_fixed_nationality)
```

```
## # A tibble: 159 × 2
##    nationality_fixed total_players
##    <chr>                     <int>
##  1 United Kingdom             2004
##  2 Germany                    1101
##  3 Spain                       989
##  4 France                      942
##  5 Argentina                   938
##  6 Italy                       796
##  7 Brazil                      785
##  8 Colombia                    578
##  9 Japan                       442
## 10 Netherlands                 415
## # ℹ 149 more rows
```
…
# Get club-level data stats
club_summary <- fifa %>%
  filter(!is.na(club)) %>% # Exclude players with no club affiliation
  group_by(club) %>%
  summarize(
    avg_overall = mean(overall),
    avg_potential = mean(potential),
    avg_age = mean(age),
    num_players = n())

club_summary
```

```
## # A tibble: 647 × 5
##    club                 avg_overall avg_potential avg_age num_players
##    <chr>                      <dbl>         <dbl>   <dbl>       <int>
##  1 1. FC Heidenheim            66.5          71.2    24.6          26
##  2 1. FC Kaiserslautern        64.6          72.5    22.4          28
##  3 1. FC Köln                  72.7          78.2    24.2          30
##  4 1. FC Magdeburg             65.0          68.9    25.4          24
##  5 1. FC Nürnberg              67.8          72.7    25.1          26
##  6 1. FC Union Berlin          68.1          73.4    25.4          27
##  7 1. FSV Mainz 05             71.8          77.9    24.2          30
##  8 AC Ajaccio                  63.8          69.7    25.7          22
##  9 AC Horsens                  58.5          65.3    24.2          24
## 10 AD Alcorcón                 67.5          69.5    28.4          25
## # ℹ 637 more rows
```
``` r
# Get top 10 clubs by average overall rating
top_10_clubs <- club_summary %>%
  arrange(desc(avg_overall)) %>%
  head(10)

fifa_top_10_clubs <- fifa %>%
  filter(club %in% top_10_clubs$club) %>%
  mutate(club = factor(club, levels = top_10_clubs$club))

fifa_top_10_clubs
```

```
## # A tibble: 263 × 40
##    name        nationality club    age overall potential acceleration aggression
##    <chr>       <chr>       <fct> <dbl>   <dbl>     <dbl>        <dbl>      <dbl>
##  1 Cristiano … Portugal    Real…    32      94        94           89         63
##  2 L. Messi    Argentina   FC B…    30      93        93           92         48
##  3 Neymar      Brazil      Pari…    25      92        94           94         56
##  4 L. Suárez   Uruguay     FC B…    30      92        92           88         78
##  5 M. Neuer    Germany     FC B…    31      92        92           58         29
##  6 R. Lewando… Poland      FC B…    28      91        91           79         80
##  7 De Gea      Spain       Manc…    26      90        92           57         38
##  8 E. Hazard   Belgium     Chel…    26      90        91           93         54
##  9 T. Kroos    Germany     Real…    27      90        90           60         60
## 10 G. Higuaín  Argentina   Juve…    29      90        90           78         50
## # ℹ 253 more rows
## # ℹ 32 more variables: agility <dbl>, balance <dbl>, ball_control <dbl>,
## #   composure <dbl>, crossing <dbl>, curve <dbl>, dribbling <dbl>,
## #   finishing <dbl>, free_kick_accuracy <dbl>, gk_diving <dbl>,
## #   gk_handling <dbl>, gk_kicking <dbl>, gk_positioning <dbl>,
## #   gk_reflexes <dbl>, heading_accuracy <dbl>, interceptions <dbl>,
## #   jumping <dbl>, long_passing <dbl>, long_shots <dbl>, marking <dbl>, …
```
``` r
# Get bottom 10 clubs by average overall rating
bottom_10_clubs <- club_summary %>%
  arrange(avg_overall) %>%
  head(10)

fifa_bottom_10_clubs <- fifa %>%
  filter(club %in% bottom_10_clubs$club) %>%
  mutate(club = factor(club, levels = bottom_10_clubs$club))

fifa_bottom_10_clubs
```

```
## # A tibble: 220 × 40
##    name        nationality club    age overall potential acceleration aggression
##    <chr>       <chr>       <fct> <dbl>   <dbl>     <dbl>        <dbl>      <dbl>
##  1 C. Grant    England     Crew…    22      67        77           65         70
##  2 S. Supple   Republic o… Bohe…    30      65        66           44         24
##  3 B. McNamee  Republic o… Derr…    25      64        69           77         60
##  4 P. McCourt  Northern I… Finn…    33      64        64           63         45
##  5 P. Olsen    Denmark     FC H…    23      63        72           65         70
##  6 O. Akharraz Denmark     FC H…    26      63        64           75         70
##  7 S. Henriks… Denmark     FC H…    25      63        69           63         67
##  8 J. Russell  Republic o… Slig…    32      62        62           60         65
##  9 G. McCabe   Republic o… Bray…    28      62        62           69         78
## 10 A. McEneff  Republic o… Derr…    21      62        73           74         57
## # ℹ 210 more rows
## # ℹ 32 more variables: agility <dbl>, balance <dbl>, ball_control <dbl>,
## #   composure <dbl>, crossing <dbl>, curve <dbl>, dribbling <dbl>,
## #   finishing <dbl>, free_kick_accuracy <dbl>, gk_diving <dbl>,
## #   gk_handling <dbl>, gk_kicking <dbl>, gk_positioning <dbl>,
## #   gk_reflexes <dbl>, heading_accuracy <dbl>, interceptions <dbl>,
## #   jumping <dbl>, long_passing <dbl>, long_shots <dbl>, marking <dbl>, …
```
…
