…
(e) Create a plot of your choice that uses the attribute for precipitation _(values of -99.9 for temperature or -99.99 for precipitation represent missing data)_.


``` r
# Get rid of any missing precipitation data
tpa_precip <- tpa_dated %>% 
  filter(precipitation != -99.99)

tpa_precip
```

```
## # A tibble: 365 × 8
##     year month   day precipitation max_temp min_temp ave_temp month_name
##    <dbl> <dbl> <dbl>         <dbl>    <dbl>    <dbl>    <dbl> <ord>     
##  1  2022     1     1       0             82       67     74.5 January   
##  2  2022     1     2       0             82       71     76.5 January   
##  3  2022     1     3       0.02          75       55     65   January   
##  4  2022     1     4       0             76       50     63   January   
##  5  2022     1     5       0             75       59     67   January   
##  6  2022     1     6       0.00001       74       56     65   January   
##  7  2022     1     7       0.00001       81       63     72   January   
##  8  2022     1     8       0             81       58     69.5 January   
##  9  2022     1     9       0             84       65     74.5 January   
## 10  2022     1    10       0             81       64     72.5 January   
## # ℹ 355 more rows
```
…
``` r
top_lyrics
```

```
## # A tibble: 100 × 6
##     Rank Song              Artist                             Year Lyrics Source
##    <dbl> <chr>             <chr>                             <dbl> <chr>   <dbl>
##  1     1 uptown funk       mark ronson featuring bruno mars   2015 this …      1
##  2     2 thinking out loud ed sheeran                         2015 when …      1
##  3     3 see you again     wiz khalifa featuring charlie pu…  2015 its b…      1
##  4     4 trap queen        fetty wap                          2015 im li…      1
##  5     5 sugar             maroon 5                           2015 im hu…      1
##  6     6 shut up and dance walk the moon                      2015 oh do…      1
##  7     7 blank space       taylor swift                       2015 nice …      1
##  8     8 watch me          silento                            2015 now w…      1
##  9     9 earned it         the weeknd                         2015 you m…      1
## 10    10 the hills         the weeknd                         2015 your …      1
## # ℹ 90 more rows
```
